Attribute,InformationGain
pastMH,0.472248459
soughttreatmentMH,0.429752875
issueInterfareMH,0.398293542
currentlyMH,0.346423438
issueNotInsterfareMH,0.344204409
workPosition,0.198559315
familyMH,0.115960563
shareFrndMH,0.06865939
country,0.058013669
workCountry,0.053363304
observedMH,0.049830621
US_State,0.045534541
revealcoworkerMH,0.044991139
US_State_work,0.044231341
optionMH,0.044057462
treatedforMH,0.043562355
previousprovideMH,0.032546252
awareMH,0.029292839
age,0.028278441
negativeEmpMH,0.02743361
gender,0.027196546
revealedMH,0.02628108
identityPersonMH,0.02589156
bellieveMH,0.025435145
benefitMH,0.021813731
observAnotherMH,0.020771339
feelPrevEmpMH,0.019880773
negativeConseMH,0.019042007
howmuchaffectedMH,0.018899486
viewNegEmpMH,0.017855421
productaffectedMH,0.015858578
anonimityprotectMH,0.014703538
bringPotentialEmpMH,0.012196589
issueMH,0.009559947
onlineresourcesMH,0.009455712
directSupMH,0.009405749
formallydiscussMH,0.009233335
takeseriousMH,0.007599008
NumberOfEmployee,0.006344874
discussempMH,0.004118835
prevprovideMHhelp,0.003336413
thinkMH,0.003206539
havepreviousemployee,0.003091452
heardMH,0.002832181
prevDiscussMH,0.002547266
workRemotely,0.001939867
coverageMH,0.001806229
physicalhealthMH,0.001651265
resourcesMH,0.001647076
willingPhyMH,0.001011701
protectMH,0.000905438
selfEmployee,0.000891558
feelMH,0.000859858
feelComfortableMH,0.000826492
Istech,0.000330708
discussMH,1.75E-05
IsPrimaryTech,5.70E-08
